^C:\USERS\EDUAR\SOURCE\REPOS\HM_14.4\X64\DEBUG\HM_14.4.OBJ
C:\USERS\EDUAR\SOURCE\REPOS\HM_14.4\X64\DEBUG\HM_14.4.EXE
C:\USERS\EDUAR\SOURCE\REPOS\HM_14.4\X64\DEBUG\HM_14.4.ILK
C:\USERS\EDUAR\SOURCE\REPOS\HM_14.4\X64\DEBUG\HM_14.4.PDB
